{
    "schema_courseInfo": {
        "$schema": "https://json-schema.org/draft/2019-09/schema",
        "$id": "http://example.com/example.json",
        "type": "object",
        "default": {},
        "title": "Root Schema",
        "required": [
            "id",
            "name",
            "description",
            "level",
            "image",
            "releasedDate",
            "author",
            "authorCourses",
            "lectures",
            "updatedAt",
            "duration",
            "rating",
            "tags",
            "review",
            "ratingCount",
            "progress",
            "overview"
        ],
     
        "examples": [{
            "id": "229d2f91-f102-423e-a168-cc9315be4d24",
            "name": "test1999",
            "description": "test1 test test",
            "level": "ADVANCED",
            "image": "/static/media/default_course_image.3944bf6b.jpg",
            "releasedDate": "2022-07-21T22:26:24.313+00:00",
            "author": {
                "id": "75bbe173-8594-4c8a-a926-7a6508b876af",
                "userId": "58c14703-b827-4ca9-bd21-46c418076c10",
                "firstName": "Petro",
                "lastName": "Vaskovskyi",
                "avatar": "https://knewless.tk/assets/images/b65ebbd0-7b6e-4cb3-aa1f-74e6136bbbd8.png",
                "biography": "I was born",
                "schoolInfo": null,
                "followers": 7
            },
            "authorCourses": [{
                "id": "229d2f91-f102-423e-a168-cc9315be4d24",
                "name": "test1999",
                "level": "ADVANCED",
                "author": "Petro Vaskovskyi",
                "authorId": "75bbe173-8594-4c8a-a926-7a6508b876af",
                "tags": [{
                    "id": "c7aa3ce6-4abf-42ba-b0be-dbd4aa46cec4",
                    "name": "Java",
                    "imageSrc": "https://i.imgur.com/RM1NDFD.png?1"
                }],
                "imageSrc": "/static/media/default_course_image.3944bf6b.jpg",
                "duration": 59,
                "rating": 0,
                "ratingCount": 0,
                "updatedAt": "2022-07-21T22:26:24.349+00:00",
                "reviewed": false
            },
            {
                "id": "ce3550a0-d065-4d81-b46c-ef1d6fb29eab",
                "name": "test1",
                "level": "ADVANCED",
                "author": "Petro Vaskovskyi",
                "authorId": "75bbe173-8594-4c8a-a926-7a6508b876af",
                "tags": [{
                    "id": "c7aa3ce6-4abf-42ba-b0be-dbd4aa46cec4",
                    "name": "Java",
                    "imageSrc": "https://i.imgur.com/RM1NDFD.png?1"
                }],
                "imageSrc": "/static/media/default_course_image.3944bf6b.jpg",
                "duration": 59,
                "rating": 0,
                "ratingCount": 0,
                "updatedAt": "2022-07-21T21:27:46.236+00:00",
                "reviewed": false
            },
            {
                "id": "4acb6855-a693-4571-871d-3a9c24a8d4ae",
                "name": "First course",
                "level": "INTERMEDIATE",
                "author": "Petro Vaskovskyi",
                "authorId": "75bbe173-8594-4c8a-a926-7a6508b876af",
                "tags": [{
                    "id": "0d48af6f-861e-4b1f-8d03-9fa993fbe9cf",
                    "name": "Swift",
                    "imageSrc": "https://i.imgur.com/430VVln.png"
                },
                {
                    "id": "2c511b0c-fc47-4801-99d5-525efc89708e",
                    "name": "Angular",
                    "imageSrc": "https://i.imgur.com/v69nP6w.png"
                },
                {
                    "id": "56dd3e0a-5e64-46a1-a40d-767278302e95",
                    "name": "C++",
                    "imageSrc": "https://i.imgur.com/NmipgdZ.png"
                }],
                "imageSrc": "/static/media/default_course_image.3944bf6b.jpg",
                "duration": 6,
                "rating": 0,
                "ratingCount": 0,
                "updatedAt": "2022-07-21T21:27:41.188+00:00",
                "reviewed": false
            },
            {
                "id": "90b51007-f849-4890-8adf-654e83616b77",
                "name": "Our test course",
                "level": "BEGINNER",
                "author": "Petro Vaskovskyi",
                "authorId": "75bbe173-8594-4c8a-a926-7a6508b876af",
                "tags": [{
                    "id": "c7aa3ce6-4abf-42ba-b0be-dbd4aa46cec4",
                    "name": "Java",
                    "imageSrc": "https://i.imgur.com/RM1NDFD.png?1"
                }],
                "imageSrc": "/static/media/default_course_image.3944bf6b.jpg",
                "duration": 59,
                "rating": 2,
                "ratingCount": 1,
                "updatedAt": "2022-07-21T21:27:25.242+00:00",
                "reviewed": false
            },
            {
                "id": "8786a8c5-e3d1-42ae-8853-c10ac76201cb",
                "name": "test38888",
                "level": "ADVANCED",
                "author": "Petro Vaskovskyi",
                "authorId": "75bbe173-8594-4c8a-a926-7a6508b876af",
                "tags": [{
                    "id": "c7aa3ce6-4abf-42ba-b0be-dbd4aa46cec4",
                    "name": "Java",
                    "imageSrc": "https://i.imgur.com/RM1NDFD.png?1"
                }],
                "imageSrc": "/static/media/default_course_image.3944bf6b.jpg",
                "duration": 59,
                "rating": 0,
                "ratingCount": 0,
                "updatedAt": "2022-07-21T20:41:32.205+00:00",
                "reviewed": false
            },
            {
                "id": "a50e69af-5157-4d80-868c-b08429c88508",
                "name": "test1999",
                "level": "ADVANCED",
                "author": "Petro Vaskovskyi",
                "authorId": "75bbe173-8594-4c8a-a926-7a6508b876af",
                "tags": [{
                    "id": "c7aa3ce6-4abf-42ba-b0be-dbd4aa46cec4",
                    "name": "Java",
                    "imageSrc": "https://i.imgur.com/RM1NDFD.png?1"
                }],
                "imageSrc": "/static/media/default_course_image.3944bf6b.jpg",
                "duration": 59,
                "rating": 0,
                "ratingCount": 0,
                "updatedAt": "2022-07-21T20:03:38.890+00:00",
                "reviewed": false
            },
            {
                "id": "aa6799bc-6c32-4d4d-886d-e8cc23243cb6",
                "name": "test1",
                "level": "ADVANCED",
                "author": "Petro Vaskovskyi",
                "authorId": "75bbe173-8594-4c8a-a926-7a6508b876af",
                "tags": [{
                    "id": "c7aa3ce6-4abf-42ba-b0be-dbd4aa46cec4",
                    "name": "Java",
                    "imageSrc": "https://i.imgur.com/RM1NDFD.png?1"
                }],
                "imageSrc": "/static/media/default_course_image.3944bf6b.jpg",
                "duration": 59,
                "rating": 0,
                "ratingCount": 0,
                "updatedAt": "2022-07-21T20:01:58.020+00:00",
                "reviewed": false
            },
            {
                "id": "1255d3f0-e870-48b1-9085-cd843e72c033",
                "name": "test333",
                "level": "ADVANCED",
                "author": "Petro Vaskovskyi",
                "authorId": "75bbe173-8594-4c8a-a926-7a6508b876af",
                "tags": [{
                    "id": "c7aa3ce6-4abf-42ba-b0be-dbd4aa46cec4",
                    "name": "Java",
                    "imageSrc": "https://i.imgur.com/RM1NDFD.png?1"
                }],
                "imageSrc": "/static/media/default_course_image.3944bf6b.jpg",
                "duration": 59,
                "rating": 0,
                "ratingCount": 0,
                "updatedAt": "2022-07-21T19:54:43.232+00:00",
                "reviewed": false
            },
            {
                "id": "e5d787b6-1f74-4052-8251-94a1a966e6b9",
                "name": "The Practical Test Pyramid",
                "level": "BEGINNER",
                "author": "Petro Vaskovskyi",
                "authorId": "75bbe173-8594-4c8a-a926-7a6508b876af",
                "tags": [{
                    "id": "0d48af6f-861e-4b1f-8d03-9fa993fbe9cf",
                    "name": "Swift",
                    "imageSrc": "https://i.imgur.com/430VVln.png"
                },
                {
                    "id": "0f17e931-bfe0-42c1-a181-535f491fe9f5",
                    "name": "Linux",
                    "imageSrc": "https://i.imgur.com/2yrDOtc.png"
                },
                {
                    "id": "140f2da3-e86f-440b-8b24-fd40440dca45",
                    "name": "HTML",
                    "imageSrc": "https://i.imgur.com/xLxjG0e.png"
                },
                {
                    "id": "2c511b0c-fc47-4801-99d5-525efc89708e",
                    "name": "Angular",
                    "imageSrc": "https://i.imgur.com/v69nP6w.png"
                },
                {
                    "id": "56dd3e0a-5e64-46a1-a40d-767278302e95",
                    "name": "C++",
                    "imageSrc": "https://i.imgur.com/NmipgdZ.png"
                },
                {
                    "id": "5fa68519-4074-435a-bc54-93332bad785c",
                    "name": "MongoDB",
                    "imageSrc": "https://i.imgur.com/zGIvuDV.png"
                },
                {
                    "id": "e63bf7e9-86d4-46a8-9ab2-4b37a0d7dca5",
                    "name": "C#",
                    "imageSrc": "https://i.imgur.com/3xrlexh.png"
                }],
                "imageSrc": "/static/media/default_course_image.3944bf6b.jpg",
                "duration": 220,
                "rating": 0,
                "ratingCount": 0,
                "updatedAt": "2022-07-21T19:34:10.170+00:00",
                "reviewed": false
            },
            {
                "id": "856e14d5-9fac-42a2-93ea-6805e1974a6e",
                "name": "Java for  cat",
                "level": "BEGINNER",
                "author": "Petro Vaskovskyi",
                "authorId": "75bbe173-8594-4c8a-a926-7a6508b876af",
                "tags": [{
                    "id": "c7aa3ce6-4abf-42ba-b0be-dbd4aa46cec4",
                    "name": "Java",
                    "imageSrc": "https://i.imgur.com/RM1NDFD.png?1"
                }],
                "imageSrc": "/static/media/default_course_image.3944bf6b.jpg",
                "duration": 59,
                "rating": 4,
                "ratingCount": 11,
                "updatedAt": "2022-07-10T19:34:15.601+00:00",
                "reviewed": false
            }],
            "lectures": [{
                "id": "e9c44738-3450-4a2b-8487-a8cddb633d65",
                "name": "cat",
                "description": "Cat and java ",
                "webLink": null,
                "urlOrigin": "assets/video/a0537328-cd91-4f9e-bf6f-343cafd46138/a0537328-cd91-4f9e-bf6f-343cafd46138-origin.mp4",
                "url1080": "assets/video/a0537328-cd91-4f9e-bf6f-343cafd46138/a0537328-cd91-4f9e-bf6f-343cafd46138-1080.mp4",
                "url720": "assets/video/a0537328-cd91-4f9e-bf6f-343cafd46138/a0537328-cd91-4f9e-bf6f-343cafd46138-720.mp4",
                "url480": "assets/video/a0537328-cd91-4f9e-bf6f-343cafd46138/a0537328-cd91-4f9e-bf6f-343cafd46138-480.mp4",
                "previewImage": "assets/video/a0537328-cd91-4f9e-bf6f-343cafd46138/thumbnail.png",
                "timeSeconds": 59,
                "index": 1,
                "tags": [
                    "c7aa3ce6-4abf-42ba-b0be-dbd4aa46cec4"
                ],
                "favourite": false
            }],
            "updatedAt": "2022-07-21T22:26:24.349+00:00",
            "duration": 59,
            "rating": 0,
            "tags": [{
                "id": "c7aa3ce6-4abf-42ba-b0be-dbd4aa46cec4",
                "name": "Java",
                "imageSrc": "https://i.imgur.com/RM1NDFD.png?1"
            }],
            "review": null,
            "ratingCount": 0,
            "progress": 0,
            "overview": ""
        }]
    }

}